…
    ## Warning: 1410 parsing failures.
    ##  row                      col           expected    actual                                                                                       file
    ## 1475 kznf_gene_catalog        1/0/T/F/TRUE/FALSE 404       'ftp://ftp.ebi.ac.uk/pub/databases/genenames/new/tsv/locus_groups/protein-coding_gene.txt'
    ## 1483 kznf_gene_catalog        1/0/T/F/TRUE/FALSE 341       'ftp://ftp.ebi.ac.uk/pub/databases/genenames/new/tsv/locus_groups/protein-coding_gene.txt'
    ## 1484 kznf_gene_catalog        1/0/T/F/TRUE/FALSE 90        'ftp://ftp.ebi.ac.uk/pub/databases/genenames/new/tsv/locus_groups/protein-coding_gene.txt'
    ## 1521 intermediate_filament_db 1/0/T/F/TRUE/FALSE HGNC:1040 'ftp://ftp.ebi.ac.uk/pub/databases/genenames/new/tsv/locus_groups/protein-coding_gene.txt'
    ## 1522 intermediate_filament_db 1/0/T/F/TRUE/FALSE HGNC:1041 'ftp://ftp.ebi.ac.uk/pub/databases/genenames/new/tsv/locus_groups/protein-coding_gene.txt'
    ## .... ........................ .................. ......... ..........................................................................................
    ## See problems(...) for more details.

    ## # A tibble: 18,835 x 5
    ##    ensembl_gene_id symbol  name            gene_family            ccds_id       
    ##    <chr>           <chr>   <chr>           <chr>                  <chr>         
    ##  1 ENSG00000121410 A1BG    alpha-1-B glyc… Immunoglobulin like d… CCDS12976     
    ##  2 ENSG00000148584 A1CF    APOBEC1 comple… RNA binding motif con… CCDS73133|CCD…
    ##  3 ENSG00000175899 A2M     alpha-2-macrog… C3 and PZP like, alph… CCDS44827     
    ##  4 ENSG00000166535 A2ML1   alpha-2-macrog… C3 and PZP like, alph… CCDS73439|CCD…
    ##  5 ENSG00000184389 A3GALT2 alpha 1,3-gala… Glycosyltransferase f… CCDS60080     
    ##  6 ENSG00000128274 A4GALT  alpha 1,4-gala… Alpha 1,4-glycosyltra… CCDS14041     
    ##  7 ENSG00000118017 A4GNT   alpha-1,4-N-ac… Alpha 1,4-glycosyltra… CCDS3097      
    ##  8 ENSG00000094914 AAAS    aladin WD repe… WD repeat domain cont… CCDS8856|CCDS…
    ##  9 ENSG00000081760 AACS    acetoacetyl-Co… Acyl-CoA synthetase f… CCDS9263      
    ## 10 ENSG00000114771 AADAC   arylacetamide … Lipases|Arylacetamide… CCDS33877     
    ## # … with 18,825 more rows
…
    ##   CD34_shRPL5_RNA_1 = col_double(),
    ##   CD34_shRPL5_RNA_2 = col_double(),
    ##   CD34_shRPL5_RPF_1 = col_double(),
    ##   CD34_shRPL5_RPF_2 = col_double(),
    ##   CD34_shRPS19_RNA_1 = col_double(),
    ##   CD34_shRPS19_RNA_2 = col_double(),
    ##   CD34_shRPS19_RPF_1 = col_double(),
    ##   CD34_shRPS19_RPF_2 = col_double(),
    ##   CD34_shLuc_RNA_1 = col_double(),
    ##   CD34_shLuc_RNA_2 = col_double(),
    ##   CD34_shLuc_RPF_1 = col_double(),
    ##   CD34_shLuc_RPF_2 = col_double()
    ## )

    ## # A tibble: 63,677 x 15
    ##    ensembl_gene_id CD34_shTSR2_RNA… CD34_shTSR2_RNA… CD34_shRPL5_RNA…
    ##    <chr>                      <dbl>            <dbl>            <dbl>
    ##  1 ENSG00000000003               48               56               40
    ##  2 ENSG00000000005                0                2                0
    ##  3 ENSG00000000419              880              744             1116
    ##  4 ENSG00000000457              124              113              149
    ##  5 ENSG00000000460              249              262              289
    ##  6 ENSG00000000938               89               64              204
    ##  7 ENSG00000000971              106               86              241
    ##  8 ENSG00000001036              897              613             1487
    ##  9 ENSG00000001084              965             1027             1036
    ## 10 ENSG00000001167              721              835              498
    ## # … with 63,667 more rows, and 11 more variables: CD34_shRPL5_RNA_2 <dbl>,
    ## #   CD34_shRPL5_RPF_1 <dbl>, CD34_shRPL5_RPF_2 <dbl>, CD34_shRPS19_RNA_1 <dbl>,
    ## #   CD34_shRPS19_RNA_2 <dbl>, CD34_shRPS19_RPF_1 <dbl>,
    ## #   CD34_shRPS19_RPF_2 <dbl>, CD34_shLuc_RNA_1 <dbl>, CD34_shLuc_RNA_2 <dbl>,
    ## #   CD34_shLuc_RPF_1 <dbl>, CD34_shLuc_RPF_2 <dbl>
…
Write a code chunk to filter the result from Problem 4 to include only
rows where each of the 12 numerical columns you selected has 50 counts
or more and reassign back to `data`. This is a simple way to avoid genes
that have very low counts. You might be tempted to do this step
separately for each of the 12 columns, but you will receive 5 bonus
points if you instead use the `filter_if` and `all_vars` functions you
learned above.

``` r
data <-data %>%
  filter_if(is.numeric, all_vars(. >= 50)) %>%
  print()
```

    ## # A tibble: 4,239 x 13
    ##    ensembl_gene_id CD34_shRPL5_RPF… CD34_shRPL5_RPF… CD34_shRPL5_RNA…
    ##    <chr>                      <dbl>            <dbl>            <dbl>
    ##  1 ENSG00000000419              101              249             1116
    ##  2 ENSG00000001036              182              295             1487
    ##  3 ENSG00000001084              134              275             1036
    ##  4 ENSG00000001497              253              367             1436
    ##  5 ENSG00000002549              285              447             1228
    ##  6 ENSG00000002586              260              395             2746
    ##  7 ENSG00000002834              254              412             4346
    ##  8 ENSG00000003056              321              698             1379
    ##  9 ENSG00000003393               84              130              832
    ## 10 ENSG00000003402               95              188             1836
    ## # … with 4,229 more rows, and 9 more variables: CD34_shRPL5_RNA_2 <dbl>,
    ## #   CD34_shRPS19_RPF_1 <dbl>, CD34_shRPS19_RPF_2 <dbl>,
    ## #   CD34_shRPS19_RNA_1 <dbl>, CD34_shRPS19_RNA_2 <dbl>, CD34_shLuc_RPF_1 <dbl>,
    ## #   CD34_shLuc_RPF_2 <dbl>, CD34_shLuc_RNA_1 <dbl>, CD34_shLuc_RNA_2 <dbl>
…
    ## Warning: `funs()` is deprecated as of dplyr 0.8.0.
    ## Please use a list of either functions or lambdas: 
    ## 
    ##   # Simple named list: 
    ##   list(mean = mean, median = median)
    ## 
    ##   # Auto named with `tibble::lst()`: 
    ##   tibble::lst(mean, median)
    ## 
    ##   # Using lambdas
    ##   list(~ mean(., trim = .2), ~ median(., na.rm = TRUE))
    ## This warning is displayed once every 8 hours.
    ## Call `lifecycle::last_warnings()` to see where this warning was generated.

    ## # A tibble: 4,239 x 13
    ##    ensembl_gene_id CD34_shRPL5_RPF… CD34_shRPL5_RPF… CD34_shRPL5_RNA…
    ##    <chr>                      <dbl>            <dbl>            <dbl>
    ##  1 ENSG00000000419            0.620            0.896            0.817
    ##  2 ENSG00000001036            1.12             1.06             1.09 
    ##  3 ENSG00000001084            0.822            0.989            0.758
    ##  4 ENSG00000001497            1.55             1.32             1.05 
    ##  5 ENSG00000002549            1.75             1.61             0.899
    ##  6 ENSG00000002586            1.60             1.42             2.01 
    ##  7 ENSG00000002834            1.56             1.48             3.18 
    ##  8 ENSG00000003056            1.97             2.51             1.01 
    ##  9 ENSG00000003393            0.515            0.468            0.609
    ## 10 ENSG00000003402            0.583            0.676            1.34 
    ## # … with 4,229 more rows, and 9 more variables: CD34_shRPL5_RNA_2 <dbl>,
    ## #   CD34_shRPS19_RPF_1 <dbl>, CD34_shRPS19_RPF_2 <dbl>,
    ## #   CD34_shRPS19_RNA_1 <dbl>, CD34_shRPS19_RNA_2 <dbl>, CD34_shLuc_RPF_1 <dbl>,
    ## #   CD34_shLuc_RPF_2 <dbl>, CD34_shLuc_RNA_1 <dbl>, CD34_shLuc_RNA_2 <dbl>
…
  select(ensembl_gene_id, mean_rpl5_te, mean_rps19_te, mean_shluc_te) %>%
  mutate(lfc_te_rpl5 = log2(mean_rpl5_te / mean_shluc_te),
         lfc_te_rps19 = log2(mean_rps19_te / mean_shluc_te)) %>%
  print()
```

    ## # A tibble: 4,239 x 6
    ##    ensembl_gene_id mean_rpl5_te mean_rps19_te mean_shluc_te lfc_te_rpl5
    ##    <chr>                  <dbl>         <dbl>         <dbl>       <dbl>
    ##  1 ENSG00000000419        0.919         1.49          1.08       -0.239
    ##  2 ENSG00000001036        1.17          1.11          1.45       -0.316
    ##  3 ENSG00000001084        1.02          1.14          0.853       0.258
    ##  4 ENSG00000001497        1.38          1.04          1.75       -0.338
    ##  5 ENSG00000002549        1.78          1.87          1.50        0.245
    ##  6 ENSG00000002586        0.903         0.825         1.14       -0.331
    ##  7 ENSG00000002834        0.479         0.394         0.519      -0.115
    ##  8 ENSG00000003056        1.87          1.87          1.02        0.882
    ##  9 ENSG00000003393        0.831         1.20          0.462       0.847
    ## 10 ENSG00000003402        0.505         0.427         0.344       0.552
    ## # … with 4,229 more rows, and 1 more variable: lfc_te_rps19 <dbl>
…
Then select only the gene id column and the new column that you just
created (this will be your new dataframe `mean_lfc`).

``` r
mean_lfc <-lfc %>%
  mutate(avg_lfc =((lfc_te_rpl5+lfc_te_rps19)/2) ) %>%
  select(ensembl_gene_id, avg_lfc ) %>%
  print()
```

    ## # A tibble: 4,239 x 2
    ##    ensembl_gene_id avg_lfc
    ##    <chr>             <dbl>
    ##  1 ENSG00000000419   0.110
    ##  2 ENSG00000001036  -0.355
    ##  3 ENSG00000001084   0.337
    ##  4 ENSG00000001497  -0.543
    ##  5 ENSG00000002549   0.280
    ##  6 ENSG00000002586  -0.396
    ##  7 ENSG00000002834  -0.256
    ##  8 ENSG00000003056   0.880
    ##  9 ENSG00000003393   1.11 
    ## 10 ENSG00000003402   0.431
    ## # … with 4,229 more rows
…
**10 points**

Write code to join the `mean_lfc` dataframe with the `annotations`
dataframe created at the top of the document and assign back to
`mean_lfc`.

``` r
mean_lfc <- mean_lfc %>%
  left_join(annotations, by = "ensembl_gene_id") %>% 
  print()
```

    ## # A tibble: 4,239 x 6
    ##    ensembl_gene_id avg_lfc symbol name         gene_family        ccds_id       
    ##    <chr>             <dbl> <chr>  <chr>        <chr>              <chr>         
    ##  1 ENSG00000000419   0.110 DPM1   dolichyl-ph… Glycosyltransfera… CCDS82628|CCD…
    ##  2 ENSG00000001036  -0.355 FUCA2  alpha-L-fuc… Alpha-L-fucosidas… CCDS5200      
    ##  3 ENSG00000001084   0.337 GCLC   glutamate-c… <NA>               CCDS4952|CCDS…
    ##  4 ENSG00000001497  -0.543 LAS1L  LAS1 like r… 5FMC ribosome bio… CCDS55433|CCD…
    ##  5 ENSG00000002549   0.280 LAP3   leucine ami… Aminopeptidases    CCDS3422      
    ##  6 ENSG00000002586  -0.396 CD99   CD99 molecu… Blood group antig… CCDS14119|CCD…
    ##  7 ENSG00000002834  -0.256 LASP1  LIM and SH3… LIM domain contai… CCDS62164|CCD…
    ##  8 ENSG00000003056   0.880 M6PR   mannose-6-p… MRH domain contai… CCDS8598|CCDS…
    ##  9 ENSG00000003393   1.11  ALS2   alsin Rho g… Dbl family Rho GE… CCDS46492|CCD…
    ## 10 ENSG00000003402   0.431 CFLAR  CASP8 and F… Receptor ligands|… CCDS56157|CCD…
    ## # … with 4,229 more rows
…
